<svg xmlns="http://www.w3.org/2000/svg" xmlns:xlink="http://www.w3.org/1999/xlink" width="292" height="134" viewBox="0 0 292 134">
  <defs>
    <linearGradient id="linear-gradient" x1="0.524" x2="0.438" y2="1" gradientUnits="objectBoundingBox">
      <stop offset="0" stop-color="#f55441" stop-opacity="0.741"/>
      <stop offset="1" stop-color="#f8803b" stop-opacity="0.741"/>
    </linearGradient>
  </defs>
  <rect id="Rectangle_8904" data-name="Rectangle 8904" width="292" height="134" fill="url(#linear-gradient)"/>
</svg>
