<svg xmlns="http://www.w3.org/2000/svg" width="176.519" height="225.999" viewBox="0 0 176.519 225.999">
  <g id="Group_60233" data-name="Group 60233" transform="translate(32.014 -4603.904)">
    <g id="FIRSI_Logo" data-name="FIRSI Logo" transform="translate(-32.014 4603.904)" opacity="0.2">
      <g id="Rectangle_10" data-name="Rectangle 10" transform="translate(135.442 96.777)" fill="none" stroke="#d46b2b" stroke-width="3">
        <rect width="41.077" height="129.222" stroke="none"/>
        <rect x="1.5" y="1.5" width="38.077" height="126.222" fill="none"/>
      </g>
      <g id="Rectangle_11" data-name="Rectangle 11" transform="translate(67.166 96.777)" fill="none" stroke="#d46b2b" stroke-width="3">
        <rect width="41.077" height="129.222" stroke="none"/>
        <rect x="1.5" y="1.5" width="38.077" height="126.222" fill="none"/>
      </g>
      <g id="Rectangle_16" data-name="Rectangle 16" transform="translate(135.442)" fill="none" stroke="#d46b2b" stroke-width="3">
        <rect width="41.077" height="67.128" stroke="none"/>
        <rect x="1.5" y="1.5" width="38.077" height="64.128" fill="none"/>
      </g>
      <g id="Rectangle_12" data-name="Rectangle 12" transform="translate(0 184.603)" fill="none" stroke="#d46b2b" stroke-width="3">
        <rect width="108.798" height="41.396" stroke="none"/>
        <rect x="1.5" y="1.5" width="105.798" height="38.396" fill="none"/>
      </g>
    </g>
  </g>
</svg>
