<svg id="Groupe_60153" data-name="Groupe 60153" xmlns="http://www.w3.org/2000/svg" width="17" height="17" viewBox="0 0 17 17">
  <path id="Tracé_10811" data-name="Tracé 10811" d="M0,0H17V17H0Z" fill="none"/>
  <g id="noun-graduate-3621477" transform="translate(0 2.437)">
    <path id="Tracé_10815" data-name="Tracé 10815" d="M224.338,160.277a.374.374,0,0,1-.132-.024L218.75,158.2v5.7l.09.046h0a12.383,12.383,0,0,0,11,0l.088-.045v-5.7l-5.456,2.054a.374.374,0,0,1-.132.024Z" transform="translate(-215.838 -153.108)" fill="#109155"/>
    <path id="Tracé_10816" data-name="Tracé 10816" d="M158.84,38.6l-8.5,3.2,8.5,3.2,8.5-3.2Z" transform="translate(-150.34 -38.598)" fill="#109155"/>
    <path id="Tracé_10817" data-name="Tracé 10817" d="M166.25,138.608v3.725a.373.373,0,0,0,.745,0v-3.511l-.732-.276a.344.344,0,0,0-.013.062Z" transform="translate(-165.573 -134.291)" fill="#109155"/>
  </g>
</svg>
