<svg xmlns="http://www.w3.org/2000/svg" xmlns:xlink="http://www.w3.org/1999/xlink" width="585.348" height="695.399" viewBox="0 0 585.348 695.399">
  <defs>
    <linearGradient id="linear-gradient" x1="0.836" y1="0.184" x2="0.055" y2="0.541" gradientUnits="objectBoundingBox">
      <stop offset="0" stop-color="#81a7e8"/>
      <stop offset="1" stop-color="#81a7e8" stop-opacity="0.231"/>
    </linearGradient>
  </defs>
  <path id="Union_2" data-name="Union 2" d="M442.456,695.4V614.744h53.675V695.4Zm89.216-109.8V227.055h53.675V585.6Zm-177.708,0H55.125V535.444H353.965v-225.7h53.675V585.6Zm-352.514,0V419.544H55.125V585.6Zm441.006-4.745V418.866h53.675V580.855ZM1.451,391.755V310.422H55.125v81.333Zm441.006-6.778V117.255h53.675V384.977ZM353.965,273.822V117.255h53.675V273.822Zm-88.491,0V117.255h53.675V273.822Zm-88.491,0V117.255h53.675V273.822ZM0,273.822V223.667H87.766V117.255h53.675V223.667h.725v50.155ZM353.965,81.333V0h53.675V81.333Zm-88.491,0V0h53.675V81.333Zm-88.491,0V0h53.675V81.333Z" opacity="0.14" fill="url(#linear-gradient)"/>
</svg>
