<svg xmlns="http://www.w3.org/2000/svg" width="139" height="68" viewBox="0 0 139 68">
  <g id="Groupe_60234" data-name="Groupe 60234" transform="translate(-92 -33)">
    <g id="FIRSI_Logo" data-name="FIRSI Logo" transform="translate(2397.042 1178.973)">
      <path id="Union_1" data-name="Union 1" d="M40.062,68V60.113h4.86V68ZM48.14,57.263V22.2H53v35.06Zm-16.09,0H4.991v-4.9H32.05V30.289h4.86V57.263Zm-31.918,0V41.025h4.86V57.263ZM40.062,56.8V40.959h4.86V56.8ZM.131,38.308V30.355h4.86v7.953Zm39.931-.663V11.466h4.86V37.645ZM32.05,26.776V11.466h4.86v15.31Zm-8.012,0V11.466H28.9v15.31Zm-8.012,0V11.466h4.86v15.31ZM0,26.776v-4.9H7.947V11.466h4.86V21.871h.066v4.9ZM32.05,7.953V0h4.86V7.953Zm-8.012,0V0H28.9V7.953Zm-8.012,0V0h4.86V7.953Z" transform="translate(-2305.042 -1145.973)" fill="#d66c2c"/>
      <text id="Fondation_Ibn_Rochd" data-name="Fondation
Ibn Rochd" transform="translate(-2244.042 -1120.973)" fill="#fff" font-size="15" font-family="Montserrat-SemiBold, Montserrat" font-weight="600" letter-spacing="-0.013em"><tspan x="0" y="0">Fondation</tspan><tspan x="0" y="17">Ibn Rochd</tspan></text>
      <text id="Pour_les_Sciences_et_L_Innovation" data-name="Pour les Sciences
et L&apos;Innovation" transform="translate(-2166.042 -1088.973)" fill="#fff" font-size="8" font-family="Montserrat-Medium, Montserrat" font-weight="500" letter-spacing="-0.015em"><tspan x="-68.52" y="0">Pour les Sciences</tspan><tspan x="-58.664" y="9">et L&apos;Innovation</tspan></text>
    </g>
  </g>
</svg>
