<svg xmlns="http://www.w3.org/2000/svg" width="9.192" height="15.556" viewBox="0 0 9.192 15.556">
  <path id="Tracé_8883" data-name="Tracé 8883" d="M16.172,11,10.808,5.636l1.414-1.414L20,12l-7.778,7.778-1.414-1.414L16.172,13l1-1Z" transform="translate(-10.808 -4.222)" fill="#d46b2b"/>
</svg>
