<svg xmlns="http://www.w3.org/2000/svg" width="24" height="24" viewBox="0 0 24 24">
  <g id="Groupe_59891" data-name="Groupe 59891" transform="translate(24 24) rotate(180)">
    <path id="Tracé_8882" data-name="Tracé 8882" d="M0,0H24V24H0Z" fill="none"/>
    <path id="Tracé_8883" data-name="Tracé 8883" d="M16.172,11,10.808,5.636l1.414-1.414L20,12l-7.778,7.778-1.414-1.414L16.172,13l1-1Z" transform="translate(-1.404)" fill="#fff"/>
  </g>
</svg>
